[
  {
    "Code UE": "HAI101I",
    "Libellé": "Algorithmique 1",
    "Nbre d'inscrits": 280,
    "CM": 12,
    "TD": 18,
    "TP": 15
  },
  {
    "Code UE": "HAI102I",
    "Libellé": "Programmation fonctionnelle",
    "Nbre d'inscrits": 280,
    "CM": 12,
    "TD": 33
  },
  {
    "Code UE": "HAI103I",
    "Libellé": "Utilisation des systèmes informatiques",
    "Nbre d'inscrits": 220,
    "CM": 9,
    "TD": 13.5,
    "TP": 13.5
  },
  {
    "Code UE": "HAI104I",
    "Libellé": "Jouons aux automates déterministes",
    "Nbre d'inscrits": 220,
    "CM": 9,
    "TD": 18
  },
  {
    "Code UE": "HAI105X",
    "Libellé": "Mathématiques du choix collectif",
    "Nbre d'inscrits": 200,
    "CM": 12,
    "TD": 24
  },
  {
    "Code UE": "HAI106X",
    "Libellé": "Mathématiques pour l'EEA",
    "Nbre d'inscrits": 40,
    "TD": 18
  },
  {
    "Code UE": "HAI107I2",
    "Libellé": "Remise à niveau en mathématiques",
    "Nbre d'inscrits": 120,
    "TD": 36
  },
  {
    "Code UE": "HAI108I2",
    "Libellé": "Remise à niveau en Python",
    "Nbre d'inscrits": 120,
    "TD": 36
  },
  {
    "Code UE": "HAI109H",
    "Libellé": "BioInformatique 1",
    "Nbre d'inscrits": 40,
    "CM": 12,
    "TD": 24
  }
]